{
  "project_info": {
    "project_number": "998955718654",
    "firebase_url": "https://gallerylab-4f9e7-default-rtdb.europe-west1.firebasedatabase.app",
    "project_id": "gallerylab-4f9e7",
    "storage_bucket": "gallerylab-4f9e7.appspot.com"
  },
  "client": [
    {
      "client_info": {
        "mobilesdk_app_id": "1:998955718654:android:7433b29c39234bdde412af",
        "android_client_info": {
          "package_name": "com.itechart.gallery_lab"
        }
      },
      "oauth_client": [
        {
          "client_id": "998955718654-58mt16r16shns84fu05nhuacbcsm11fk.apps.googleusercontent.com",
          "client_type": 3
        }
      ],
      "api_key": [
        {
          "current_key": "AIzaSyDcnRl4-SrX3su4vBN0Y3EkdtZNvu7f8ec"
        }
      ],
      "services": {
        "appinvite_service": {
          "other_platform_oauth_client": [
            {
              "client_id": "998955718654-58mt16r16shns84fu05nhuacbcsm11fk.apps.googleusercontent.com",
              "client_type": 3
            },
            {
              "client_id": "998955718654-ffbfocn5m1fqp58aknnoq3qkhi8f252p.apps.googleusercontent.com",
              "client_type": 2,
              "ios_info": {
                "bundle_id": "com.itechart.galleryLab"
              }
            }
          ]
        }
      }
    }
  ],
  "configuration_version": "1"
}